Annotate metabolites according to MS1 database using metid package • metid
…
Because there are no ms2 data, so the peaks have no MS2 spectra.

Get the identification table

We can use get_identification_table() to get the identification table.

table1 <- 
  get_identification_table(annotate_result1, 
                           candidate.num = 3,
                           type = "old")
#> The object is identified without MS2 spectra.
table1
#> # A tibble: 100 × 5
#>    name          mz    rt Candidate.number Identification                       
#>    <chr>      <dbl> <dbl>            <dbl> <chr>                                
#>  1 pRPLC_376   472. 773.                 3 Compound.name:Chenodeoxycholic acid …
#>  2 pRPLC_391   466. 747.                 1 Compound.name:C18:0 AC (Stearoylcarn…
#>  3 pRPLC_603   162.  33.7                2 Compound.name:L(-)-Carnitine;CAS.ID:…
#>  4 pRPLC_629   181.  36.4                3 Compound.name:THEOBROMINE;CAS.ID:NA;…
#>  5 pRPLC_685   230. 158.                 3 Compound.name:Pyridoxic acid;CAS.ID:…
#>  6 pRPLC_722   181. 228.                 3 Compound.name:THEOBROMINE;CAS.ID:NA;…
#>  7 pRPLC_778   289. 286.                 0 <NA>                                 
#>  8 pRPLC_1046  181. 201.                 3 Compound.name:THEOBROMINE;CAS.ID:NA;…
#>  9 pRPLC_1112  209.  57.4                3 Compound.name:5-HYDROXYINDOLEACETATE…
#> 10 pRPLC_1148  283.  40.9                0 <NA>                                 
#> # … with 90 more rows

The type is set as old. It means the identifications for each peak is shown as one character and seperated by {}. And the order is sorted by Total score.

You can also set type as new to get another style.

table2 <- 
  get_identification_table(annotate_result1, candidate.num = 3,
                           type = "new")
#> The object is identified without MS2 spectra.
table2
#> # A tibble: 169 × 19
#>    name         mz    rt MS2.spectra.name Candidate.number Compound.name  CAS.ID
#>    <chr>     <dbl> <dbl> <lgl>            <lgl>            <chr>          <chr> 
#>  1 pRPLC_376  472. 773.  NA               NA               Chenodeoxycho… 640-7…
#>  2 pRPLC_376   NA   NA   NA               NA               CHOLATE        <NA>  
#>  3 pRPLC_376   NA   NA   NA               NA               Cholic Acid    <NA>  
#>  4 pRPLC_391  466. 747.  NA               NA               C18:0 AC (Ste… 1976-…
#>  5 pRPLC_603  162.  33.7 NA               NA               L(-)-Carnitine <NA>  
#>  6 pRPLC_603   NA   NA   NA               NA               L-Carnitine    541-1…
#>  7 pRPLC_629  181.  36.4 NA               NA               THEOBROMINE    <NA>  
#>  8 pRPLC_629   NA   NA   NA               NA               5-Acetylamino… <NA>  
#>  9 pRPLC_629   NA   NA   NA               NA               Theophylline   <NA>  
#> 10 pRPLC_685  230. 158.  NA               NA               Pyridoxic acid 82-82…
#> # … with 159 more rows, and 12 more variables: HMDB.ID <chr>, KEGG.ID <chr>,
#> #   Lab.ID <chr>, Adduct <chr>, mz.error <dbl>, mz.match.score <dbl>,
#> #   RT.error <dbl>, RT.match.score <dbl>, CE <chr>, SS <dbl>,
#> #   Total.score <dbl>, Database <chr>

If you only want to keep one cancidate for each peak. Please set candiate.num as 1.

table2 <- 
  get_identification_table(annotate_result1, candidate.num = 2,
                           type = "new")
#> The object is identified without MS2 spectra.
table2
#> # A tibble: 141 × 19
#>    name         mz    rt MS2.spectra.name Candidate.number Compound.name  CAS.ID
#>    <chr>     <dbl> <dbl> <lgl>            <lgl>            <chr>          <chr> 
#>  1 pRPLC_376  472. 773.  NA               NA               Chenodeoxycho… 640-7…
#>  2 pRPLC_376   NA   NA   NA               NA               CHOLATE        <NA>  
#>  3 pRPLC_391  466. 747.  NA               NA               C18:0 AC (Ste… 1976-…
#>  4 pRPLC_603  162.  33.7 NA               NA               L(-)-Carnitine <NA>  
#>  5 pRPLC_603   NA   NA   NA               NA               L-Carnitine    541-1…
#>  6 pRPLC_629  181.  36.4 NA               NA               THEOBROMINE    <NA>  
#>  7 pRPLC_629   NA   NA   NA               NA               5-Acetylamino… <NA>  
#>  8 pRPLC_685  230. 158.  NA               NA               Pyridoxic acid 82-82…
#>  9 pRPLC_685   NA   NA   NA               NA               Pyridoxic acid 82-82…
#> 10 pRPLC_722  181. 228.  NA               NA               THEOBROMINE    <NA>  
#> # … with 131 more rows, and 12 more variables: HMDB.ID <chr>, KEGG.ID <chr>,
#> #   Lab.ID <chr>, Adduct <chr>, mz.error <dbl>, mz.match.score <dbl>,
#> #   RT.error <dbl>, RT.match.score <dbl>, CE <chr>, SS <dbl>,
#> #   Total.score <dbl>, Database <chr>
…
